%YAML 1.1
%TAG !u! tag:unity3d.com,2011:
--- !u!1001 &4763463419361580646
PrefabInstance:
  m_ObjectHideFlags: 0
  serializedVersion: 2
  m_Modification:
    m_TransformParent: {fileID: 0}
    m_Modifications:
    - target: {fileID: 653260036, guid: f0a2acf07199c384eb5a3a545e5f1680, type: 3}
      propertyPath: sharedProfile
      value: 
      objectReference: {fileID: 11400000, guid: 421d12ba62bdc09428551a937a6832a0, type: 2}
    - target: {fileID: 5546074693732755023, guid: f0a2acf07199c384eb5a3a545e5f1680, type: 3}
      propertyPath: m_Name
      value: ManicCharacter Variant
      objectReference: {fileID: 0}
    - target: {fileID: 5546074693732755058, guid: f0a2acf07199c384eb5a3a545e5f1680, type: 3}
      propertyPath: m_RootOrder
      value: 0
      objectReference: {fileID: 0}
    - target: {fileID: 5546074693732755058, guid: f0a2acf07199c384eb5a3a545e5f1680, type: 3}
      propertyPath: m_LocalPosition.x
      value: -13.11
      objectReference: {fileID: 0}
    - target: {fileID: 5546074693732755058, guid: f0a2acf07199c384eb5a3a545e5f1680, type: 3}
      propertyPath: m_LocalPosition.y
      value: -4.6
      objectReference: {fileID: 0}
    - target: {fileID: 5546074693732755058, guid: f0a2acf07199c384eb5a3a545e5f1680, type: 3}
      propertyPath: m_LocalPosition.z
      value: 8.78644
      objectReference: {fileID: 0}
    - target: {fileID: 5546074693732755058, guid: f0a2acf07199c384eb5a3a545e5f1680, type: 3}
      propertyPath: m_LocalRotation.w
      value: 1
      objectReference: {fileID: 0}
    - target: {fileID: 5546074693732755058, guid: f0a2acf07199c384eb5a3a545e5f1680, type: 3}
      propertyPath: m_LocalRotation.x
      value: -0
      objectReference: {fileID: 0}
    - target: {fileID: 5546074693732755058, guid: f0a2acf07199c384eb5a3a545e5f1680, type: 3}
      propertyPath: m_LocalRotation.y
      value: -0
      objectReference: {fileID: 0}
    - target: {fileID: 5546074693732755058, guid: f0a2acf07199c384eb5a3a545e5f1680, type: 3}
      propertyPath: m_LocalRotation.z
      value: -0
      objectReference: {fileID: 0}
    - target: {fileID: 5546074693732755058, guid: f0a2acf07199c384eb5a3a545e5f1680, type: 3}
      propertyPath: m_LocalEulerAnglesHint.x
      value: 0
      objectReference: {fileID: 0}
    - target: {fileID: 5546074693732755058, guid: f0a2acf07199c384eb5a3a545e5f1680, type: 3}
      propertyPath: m_LocalEulerAnglesHint.y
      value: 0
      objectReference: {fileID: 0}
    - target: {fileID: 5546074693732755058, guid: f0a2acf07199c384eb5a3a545e5f1680, type: 3}
      propertyPath: m_LocalEulerAnglesHint.z
      value: 0
      objectReference: {fileID: 0}
    - target: {fileID: 5546074693732755059, guid: f0a2acf07199c384eb5a3a545e5f1680, type: 3}
      propertyPath: sa
      value: 
      objectReference: {fileID: 1075416042195941319}
    - target: {fileID: 5546074693732755059, guid: f0a2acf07199c384eb5a3a545e5f1680, type: 3}
      propertyPath: jump
      value: 
      objectReference: {fileID: 8300000, guid: 8bbdd39c16ad2de43adde5e39b5d6df7, type: 3}
    - target: {fileID: 5546074693732755059, guid: f0a2acf07199c384eb5a3a545e5f1680, type: 3}
      propertyPath: airmobility
      value: 0.7
      objectReference: {fileID: 0}
    - target: {fileID: 5546074693732755059, guid: f0a2acf07199c384eb5a3a545e5f1680, type: 3}
      propertyPath: jumpstrength
      value: 6
      objectReference: {fileID: 0}
    - target: {fileID: 5546074693732755059, guid: f0a2acf07199c384eb5a3a545e5f1680, type: 3}
      propertyPath: movestrength
      value: 15
      objectReference: {fileID: 0}
    - target: {fileID: 5546074693732755059, guid: f0a2acf07199c384eb5a3a545e5f1680, type: 3}
      propertyPath: setdoubljumps
      value: 3
      objectReference: {fileID: 0}
    m_RemovedComponents: []
  m_SourcePrefab: {fileID: 100100000, guid: f0a2acf07199c384eb5a3a545e5f1680, type: 3}
--- !u!114 &1075416042195941319 stripped
MonoBehaviour:
  m_CorrespondingSourceObject: {fileID: 5546074693960016289, guid: f0a2acf07199c384eb5a3a545e5f1680, type: 3}
  m_PrefabInstance: {fileID: 4763463419361580646}
  m_PrefabAsset: {fileID: 0}
  m_GameObject: {fileID: 0}
  m_Enabled: 1
  m_EditorHideFlags: 0
  m_Script: {fileID: 11500000, guid: 1bc479d249f537d4188a7e76b5010902, type: 3}
  m_Name: 
  m_EditorClassIdentifier: 
